{
  "composite": [
    {
      "requirement": {
        "defaultCover": 1,
        "dayOfWeekCovers": [],
        "specificDateCovers": []
      },
      "dimension": {
        "types": {
          "SKILL": "MD",
          "LOCATION": "HOS"
        }
      }
    },
    {
      "requirement": {
        "defaultCover": 1,
        "dayOfWeekCovers": [
          {
            "weekday": 1,
            "cover": 1
          },
          {
            "weekday": 2,
            "cover": 1
          },
          {
            "weekday": 3,
            "cover": 1
          },
          {
            "weekday": 5,
            "cover": 0
          },
          {
            "weekday": 6,
            "cover": 0
          }
        ],
        "specificDateCovers": []
      },
      "dimension": {
        "types": {
          "SKILL": "NP",
          "LOCATION": "MOR"
        }
      }
    },
    {
      "requirement": {
        "defaultCover": 1,
        "dayOfWeekCovers": [
          {
            "weekday": 1,
            "cover": 1
          },
          {
            "weekday": 2,
            "cover": 1
          },
          {
            "weekday": 3,
            "cover": 1
          },
          {
            "weekday": 5,
            "cover": 0
          },
          {
            "weekday": 6,
            "cover": 0
          }
        ],
        "specificDateCovers": []
      },
      "dimension": {
        "types": {
          "SKILL": "MD",
          "LOCATION": "MOR"
        }
      }
    },
    {
      "requirement": {
        "defaultCover": 0,
        "dayOfWeekCovers": [
          {
            "weekday": 0,
            "cover": 1
          },
          {
            "weekday": 2,
            "cover": 1
          },
          {
            "weekday": 4,
            "cover": 1
          }
        ],
        "specificDateCovers": []
      },
      "dimension": {
        "types": {
          "SKILL": "MD",
          "LOCATION": "CHA"
        }
      }
    },
    {
      "requirement": {
        "defaultCover": 2,
        "dayOfWeekCovers": [
          {
            "weekday": 1,
            "cover": 3
          },
          {
            "weekday": 5,
            "cover": 0
          },
          {
            "weekday": 6,
            "cover": 0
          }
        ],
        "specificDateCovers": []
      },
      "dimension": {
        "types": {
          "SKILL": "MD",
          "LOCATION": "SUC"
        }
      }
    },
    {
      "requirement": {
        "defaultCover": 1,
        "dayOfWeekCovers": [
          {
            "weekday": 5,
            "cover": 0
          },
          {
            "weekday": 6,
            "cover": 0
          }
        ],
        "specificDateCovers": []
      },
      "dimension": {
        "types": {
          "SKILL": "NP",
          "LOCATION": "SUC"
        }
      }
    }
  ]
}
